\relax 
\@writefile{lof}{\contentsline {figure}{\numberline {1}{\ignorespaces Running time of the program for some values of N.}}{2}}
\@writefile{lot}{\contentsline {table}{\numberline {1}{\ignorespaces Optimizations and their effects on the running time.}}{3}}
